2200366163
1208981636
570979309
5541836839
241962544
3527919660
3648785457
1286619042
1088294639
1377688281
1967230786
2337972468
215931772
661922615
1695384588
1199456964
5365516371
3912337055
4698903769
4533027037
1912294040
1540834481
5078241538
2946675146
2878203967
4160306393
2969178866
353389993
4773352647
4928794003
4928793055
4069024231
1675031754
1338789500
2135503539
1985656552
2328235084
